101 075912479 0759047621111030906A094101BANKERS BANK           BANK OF CASHTON                
5200PULSE EFT ASSOC                     9113000609CORPULSE FEES1111031111033071075904760000001
641021000021612904           0000000000PRC69007590476 BANK OF CASHTON         1075904760000001
798C01021000028892952      075904766104000                                     075904760000001
820000000200021000020000000000000000000000009113000609                         075904760000001
5200TJX Rewards MC                      9130142001CORTJX EPAY  1111031111033071075904760000002
62602100002147678            0000000000323164164            5243662000273667S 1075904760000002
798C05021000023891759      0759047637                                          075904760000002
820000000200021000020000000000000000000000009130142001                         075904760000002
5200VERNON TELEPHONE                    39-0838123CORP/L CHECKS1111031111033071075904760000003
62127598253948437            00000000002030           GRETEBECK GUNNAR        1075904760000003
798C05275982535633639      0759047632                                          075904760000003
8200000002002759825300000000000000000000000039-0838123                         075904760000003
5200AMERICAN GENERAL                    1250598210PPDPREMIUM   1111031111033071075904760000004
63602100002156030            0000001094YMC0092305 MTD Dale Bendickson         1075904760000004
799R08021000020514360      07590476                                            075904760000004
820000000200021000020000000010940000000000001250598210                         075904760000004
5200AMERICAN GENERAL                    1250598210PPDPREMIUM   1111031111033071075904760000005
63602100002156030            0000001094YMC0092306 MTD Sarah Bendickson        1075904760000005
799R08021000020514361      07590476                                            075904760000005
820000000200021000020000000010940000000000001250598210                         075904760000005
5225BANK OF CASHTON ACH debits          1390147620PPDTfr debit 111103111104   1075904760000006
627051404260150804310        00000256241156012        KELLY MICHAEL         D 0075904760000006
627051404260150804310        00000256241156012        KELLY MICHAEL         D 0075904760000007
627051404260150804310        00000250001156667        GILLESPIE JOH         D 0075904760000008
627051404260150804310        00000250001156667        GILLESPIE JOH         D 0075904760000009
627051404260150804310        00000125001159925        MENTZER JESSI         D 0075904760000010
627051404260150804310        00000125001159925        MENTZER JESSI         D 0075904760000011
627051404260150804310        00000256241156772        SCANLON PATRI         D 0075904760000012
627051404260150804310        00000256241152874        SHUNK CHARLES         D 0075904760000013
627051404260150804310        00000256241152939        SCOTT NATHAN          D 0075904760000014
627051404260150804310        00000256241152939        SCOTT NATHAN          D 0075904760000015
627051404260150804310        00000298381159283        MACIAG JOSEPH         D 0075904760000016
627051404260150804310        00000298381159283        MACIAG JOSEPH         D 0075904760000017
627051404260150804310        00000128121159437        SCHWARTZ JONA         D 0075904760000018
627051404260150804310        00000256241156772        SCANLON PATRI         D 0075904760000019
627051404260150804310        00000256241152874        SHUNK CHARLES         D 0075904760000020
627051404260150804310        00000128121159437        SCHWARTZ JONA         D 0075904760000021
627051404260150804310        00000256241156322        BODOH GREGORY         D 0075904760000022
627051404260150804310        00000256241156322        BODOH GREGORY         D 0075904760000023
627051404260150804310        00000256241158929        ASHTON STEVEN         D 0075904760000024
627051404260150804310        00000256241158929        ASHTON STEVEN         D 0075904760000025
627051404260150804310        00000250001156365        WEBER DANE J          D 0075904760000026
627051404260150804310        00000250001156365        WEBER DANE J          D 0075904760000027
627051404260150804310        00000450001162633        ANDERSON NANC         D 0075904760000028
627051404260150804310        00000450001162633        ANDERSON NANC         D 0075904760000029
6270631021521000105687122    00000100001156594        DILLMAN GARY          D 0075904760000030
6270631021521000105687122    00000240001156578        BROWN LISA A          D 0075904760000031
822500002601359906540000006417880000000000001390147620                         075904760000006
5225BANK OF CASHTON ACH debits          1390147620PPDLoan pmt  111103111104   1075904760000007
627091803957000000000006309770000034000818267536      FREDERICK JOH P       L 0075904760000032
822500000100091803950000000340000000000000001390147620                         075904760000007
9000007000006000000370181169310000000677976000000000000                                       
9999999999999999999999999999999999999999999999999999999999999999999999999999999999999999999999
9999999999999999999999999999999999999999999999999999999999999999999999999999999999999999999999
9999999999999999999999999999999999999999999999999999999999999999999999999999999999999999999999
9999999999999999999999999999999999999999999999999999999999999999999999999999999999999999999999
9999999999999999999999999999999999999999999999999999999999999999999999999999999999999999999999
9999999999999999999999999999999999999999999999999999999999999999999999999999999999999999999999
9999999999999999999999999999999999999999999999999999999999999999999999999999999999999999999999

                                                                                            
  
                                                                                          
