PODTFACC file contained the following invalid PTAODFLG values
   ALLOWED VALUES ARE: 0 - N/A, 1 - YES, 2 - NO, DONT BUMP DATE, 3 - NO, BUMP DATE
   0 & 1 ARE INVALID FOR CERTIFICATES, LOANS, READY RESERVE AND SAVINGS DEBITS
   0 IS INVALID FOR DDA DEBITS
   ANYTHING OTHER THAN 0 IS INVALID FOR CREDITS

PODTF FILE CONTAINED AN ORPHAN RECORD: (now deleted)
        005465
PODTF FILE CONTAINED AN ORPHAN RECORD: (now deleted)
        005544

PODTFACC FILE CONTAINED AN ORPHAN RECORD: (now deleted)
        005362 00000000001169734 005362 02

    TRANSFER # D/C  OLD FLG NEW FLG
          3    C       2       0
         29    C       2       0
         30    C       2       0
         33    C       2       0
         35    C       2       0
         36    C       2       0
         37    C       2       0
         38    C       2       0
         39    C       2       0
         40    C       2       0
         41    C       2       0
         44    D       2       0                                     EFT
         44    C       2       0
         45    D       2       0                                     EFT
         45    C       2       0
         47    C       2       0
         48    D       2       0                                     EFT
         48    C       2       0
         50    C       1       0
         53    C       2       0
         54    C       2       0
         61    D       2       0                                     EFT
         61    C       2       0
         73    D       2       0                                     EFT
         73    C       2       0
         80    D       2       0                                     EFT
         80    C       2       0
         81    C       2       0
         82    C       2       0
         86    C       2       0
         87    C       2       0
         89    D       2       0                                     EFT
         89    C       2       0
         90    D       2       0                                     EFT
         90    C       2       0
         91    C       2       0
         99    D       2       0                                     EFT
         99    C       2       0
        108    D       2       0                                     EFT
        108    C       2       0
        120    C       1       0
        121    D       2       0                                     EFT
        121    C       2       0
        124    D       2       0                                     EFT
        124    C       2       0
        125    D       2       0                                     EFT
        125    C       2       0
        126    D       2       0                                     EFT
        126    C       2       0
        128    D       2       0                                     EFT
        128    C       2       0
        135    C       2       0
        139    C       3       0
        140    C       3       0
        166    C       2       0
        177    C       2       0
        180    D       2       0                                     EFT
        180    C       2       0
        192    C       2       0
        286    D       2       0                                     EFT
        286    C       2       0
        290    C       2       0
        292    C       2       0
        298    C       2       0
        302    C       2       0
        304    D       2       0                                     EFT
        304    C       2       0
        305    C       2       0
        306    D       2       0                                     EFT
        306    C       2       0
        308    C       2       0
        309    D       2       0                                     EFT
        309    C       2       0
        357    D       2       0                                     EFT
        357    C       2       0
        358    D       2       0                                     EFT
        358    C       2       0
        361    D       2       0                                     EFT
        361    C       2       0
        366    C       2       0
        370    D       2       0                                     EFT
        370    C       2       0
        372    C       2       0
        378    C       2       0
        459    C       2       0
        460    C       2       0
        461    C       2       0
        463    C       2       0
        468    D       2       0                                     GL
        468    C       2       0
        469    D       2       0                                     GL
        469    C       2       0
        470    D       2       0                                     GL
        470    C       2       0
        471    D       2       0                                     GL
        471    C       2       0
        472    D       2       0                                     GL
        472    C       2       0
        473    D       2       0                                     GL
        473    C       2       0
        474    D       2       0                                     GL
        474    C       2       0
        482    D       2       0                                     EFT
        482    C       2       0
        484    D       2       0                                     EFT
        484    C       2       0
        487    C       2       0
        488    C       2       0
        489    C       2       0
        490    C       2       0
        491    D       2       0                                     EFT
        491    C       2       0
        492    D       2       0                                     EFT
        492    C       2       0
       1001    C       1       0
       1002    C       1       0
       1003    C       1       0
       1004    C       1       0
       1005    C       1       0
       1006    C       1       0
       1007    C       1       0
       1009    C       1       0
       1010    C       1       0
       1012    C       1       0
       1013    C       1       0
       1014    C       1       0
       1015    C       1       0
       1016    C       1       0
       1017    C       1       0
       1018    C       1       0
       1019    C       1       0
       1020    C       1       0
       1021    C       1       0
       1025    C       1       0
       1026    C       1       0
       1027    C       1       0
       1029    C       1       0
       1030    C       1       0
       1031    C       1       0
       1032    C       1       0
       1033    C       1       0
       1034    C       1       0
       1035    C       1       0
       1036    C       1       0
       1037    C       1       0
       1038    C       1       0
       1039    C       1       0
       1040    C       1       0
       1041    C       1       0
       1042    C       1       0
       1043    C       1       0
       1044    C       1       0
       1045    C       1       0
       1046    C       1       0
       1047    C       1       0
       1048    C       1       0
       1049    C       1       0
       1050    C       1       0
       1052    C       1       0
       1054    C       1       0
       1055    C       1       0
       1056    C       1       0
       1057    C       1       0
       1058    C       1       0
       1059    C       1       0
       1060    C       1       0
       1061    C       1       0
       1062    C       1       0
       1063    C       1       0
       1064    C       1       0
       1065    C       1       0
       1066    C       1       0
       1067    C       1       0
       1068    C       1       0
       1070    C       1       0
       1072    C       1       0
       1075    C       1       0
       1076    C       1       0
       1077    C       1       0
       1078    C       1       0
       1079    C       1       0
       1080    C       1       0
       1082    C       1       0
       1084    C       1       0
       1086    C       1       0
       1088    C       1       0
       1089    C       1       0
       1090    C       1       0
       1091    C       1       0
       1092    C       1       0
       1093    C       1       0
       1095    C       1       0
       1096    C       1       0
       1097    C       1       0
       1098    C       1       0
       1099    C       1       0
       1100    C       1       0
       1101    C       1       0
       1102    C       1       0
       1103    C       1       0
       1104    C       1       0
       1105    C       1       0
       1106    C       1       0
       1107    C       1       0
       1108    C       1       0
       1109    C       1       0
       1110    C       1       0
       1111    C       1       0
       1112    C       1       0
       1115    C       1       0
       1116    C       1       0
       1117    C       1       0
       1118    C       1       0
       1119    C       1       0
       1120    C       1       0
       1121    C       1       0
       1123    C       1       0
       1124    C       1       0
       1125    C       1       0
       1126    C       1       0
       1128    C       1       0
       1130    C       1       0
       1131    C       1       0
       1133    C       1       0
       1134    C       1       0
       1138    C       1       0
       1140    C       1       0
       1141    C       1       0
       1142    C       1       0
       1143    C       1       0
       1144    C       1       0
       1145    C       1       0
       1146    C       1       0
       1147    C       1       0
       1148    C       1       0
       1149    C       1       0
       1150    C       1       0
       1151    C       1       0
       1152    C       1       0
       1153    C       1       0
       1155    C       1       0
       1157    C       1       0
       1158    C       1       0
       1159    C       1       0
       1165    C       1       0
       1167    C       1       0
       1168    C       1       0
       1169    C       1       0
       1170    C       1       0
       1171    C       1       0
       1173    C       1       0
       1174    C       1       0
       1175    C       1       0
       1176    C       1       0
       1177    C       1       0
       1178    C       1       0
       1179    C       1       0
       1181    C       1       0
       1183    C       1       0
       1185    C       1       0
       1186    C       1       0
       1187    C       1       0
       1190    C       1       0
       1191    C       1       0
       1192    C       1       0
       1193    C       1       0
       1194    C       1       0
       1195    C       1       0
       1197    C       1       0
       1198    C       1       0
       1199    C       1       0
       1203    C       1       0
       1204    C       1       0
       1205    C       1       0
       1206    C       1       0
       1207    C       1       0
       1209    C       1       0
       1211    C       1       0
       1213    C       1       0
       1214    C       1       0
       1217    C       1       0
       1218    C       1       0
       1223    C       1       0
       1226    C       1       0
       1227    C       1       0
       1228    C       1       0
       1229    C       1       0
       1230    C       1       0
       1232    C       1       0
       1233    C       1       0
       1234    C       1       0
       1235    C       1       0
       1236    C       1       0
       1237    C       1       0
       1238    C       1       0
       1239    C       1       0
       1240    C       1       0
       1241    C       1       0
       1242    C       1       0
       1244    C       1       0
       1245    C       1       0
       1246    C       1       0
       1247    C       1       0
       1248    C       1       0
       1250    C       1       0
       1252    C       1       0
       1253    C       1       0
       1255    C       1       0
       1256    C       1       0
       1257    C       1       0
       1258    C       1       0
       1259    C       1       0
       1261    C       1       0
       1262    C       1       0
       1263    C       1       0
       1264    C       1       0
       1265    C       1       0
       1266    C       1       0
       1267    C       1       0
       1268    C       1       0
       1269    C       1       0
       1270    C       1       0
       1271    C       1       0
       1272    C       1       0
       1274    C       1       0
       1276    C       1       0
       1277    C       1       0
       1278    C       1       0
       1280    C       1       0
       1282    C       1       0
       1283    C       1       0
       1284    C       1       0
       1286    C       1       0
       1287    C       1       0
       1288    C       1       0
       1289    C       1       0
       1292    C       1       0
       1294    C       1       0
       1296    C       1       0
       1297    C       1       0
       1299    C       1       0
       1300    C       1       0
       1301    C       1       0
       1302    C       1       0
       1303    C       1       0
       1304    C       1       0
       1305    C       1       0
       1307    C       1       0
       1308    C       1       0
       1310    C       1       0
       1312    C       1       0
       1313    C       1       0
       1315    C       1       0
       1317    C       1       0
       1319    C       1       0
       1320    C       1       0
       1322    C       1       0
       1323    C       1       0
       1324    C       1       0
       1325    C       1       0
       1326    C       1       0
       1327    C       1       0
       1328    C       1       0
       1331    C       1       0
       1333    C       1       0
       1334    C       1       0
       1335    C       1       0
       1336    C       1       0
       1337    C       1       0
       1338    C       1       0
       1339    C       1       0
       1341    C       1       0
       1342    C       1       0
       1343    C       1       0
       1344    C       1       0
       1345    C       1       0
       1346    C       1       0
       1347    C       1       0
       1348    C       1       0
       1349    C       1       0
       1350    C       1       0
       1351    C       1       0
       1353    C       1       0
       1354    C       1       0
       1356    C       1       0
       1357    C       1       0
       1359    C       1       0
       1361    C       1       0
       1362    C       1       0
       1363    C       1       0
       1364    C       1       0
       1365    C       1       0
       1367    C       1       0
       1368    C       1       0
       1371    C       1       0
       1372    C       1       0
       1373    C       1       0
       1374    C       1       0
       1375    C       1       0
       1376    C       1       0
       1377    C       1       0
       1378    C       1       0
       1380    C       1       0
       1381    C       1       0
       1384    C       1       0
       1386    C       1       0
       1389    C       1       0
       1390    C       1       0
       1394    C       1       0
       1396    C       1       0
       1398    C       1       0
       1400    C       1       0
       1401    C       1       0
       1403    C       1       0
       1404    C       1       0
       1405    C       1       0
       1407    C       1       0
       1408    C       1       0
       1409    C       1       0
       1410    C       1       0
       1411    C       1       0
       1412    C       1       0
       1413    C       1       0
       1414    C       1       0
       1415    C       1       0
       1416    C       1       0
       1417    C       1       0
       1418    C       1       0
       1419    C       1       0
       1421    C       1       0
       1424    C       1       0
       1425    C       1       0
       1426    C       1       0
       1428    C       1       0
       1429    C       1       0
       1431    C       1       0
       1432    C       1       0
       1436    C       1       0
       1437    C       1       0
       1439    C       1       0
       1440    C       1       0
       1443    C       1       0
       1444    C       1       0
       1446    C       1       0
       1448    C       1       0
       1449    C       1       0
       1450    C       1       0
       1451    C       1       0
       1452    C       1       0
       1453    C       1       0
       1454    C       1       0
       1455    C       1       0
       1457    C       1       0
       1459    C       1       0
       1460    C       1       0
       1461    C       1       0
       1462    C       1       0
       1463    C       1       0
       1465    C       1       0
       1466    C       1       0
       1467    C       1       0
       1468    C       1       0
       1469    C       1       0
       1470    C       1       0
       1471    C       1       0
       1473    C       1       0
       1474    C       1       0
       1475    C       1       0
       1476    C       1       0
       1477    C       1       0
       1478    C       1       0
       1479    C       1       0
       1480    C       1       0
       1481    C       1       0
       1482    C       1       0
       1483    C       1       0
       1484    C       1       0
       1486    C       1       0
       1488    C       1       0
       1490    C       1       0
       1491    C       1       0
       1492    C       1       0
       1494    C       1       0
       1495    C       1       0
       1496    C       1       0
       1497    C       1       0
       1498    C       1       0
       1499    C       1       0
       1500    C       1       0
       1502    C       1       0
       1503    C       1       0
       1504    C       1       0
       1505    C       1       0
       1507    C       1       0
       1508    C       1       0
       1511    C       1       0
       1513    C       1       0
       1516    C       1       0
       1517    C       1       0
       1518    C       1       0
       1519    C       1       0
       1520    C       1       0
       1521    C       1       0
       1522    C       1       0
       1524    C       1       0
       1525    C       1       0
       1526    C       1       0
       1527    C       1       0
       1528    C       1       0
       1529    C       1       0
       1530    C       1       0
       1532    C       1       0
       1533    C       1       0
       1534    C       1       0
       1535    C       1       0
       1536    C       1       0
       1537    C       1       0
       1538    C       1       0
       1539    C       1       0
       1540    C       1       0
       1541    C       1       0
       1543    C       1       0
       1547    C       1       0
       1548    C       1       0
       1549    C       1       0
       1550    C       1       0
       1551    C       1       0
       1552    C       1       0
       1553    C       1       0
       1554    C       1       0
       1555    C       1       0
       1556    C       1       0
       1557    C       1       0
       1558    C       1       0
       1559    C       1       0
       1560    C       1       0
       1561    C       1       0
       1562    C       1       0
       1563    C       1       0
       1568    C       1       0
       1569    C       1       0
       1570    C       1       0
       1571    C       1       0
       1572    C       1       0
       1573    C       1       0
       1574    C       1       0
       1575    C       1       0
       1581    C       1       0
       1582    C       1       0
       1583    C       1       0
       1584    C       1       0
       1585    C       1       0
       1586    C       1       0
       1587    C       1       0
       1588    C       1       0
       1589    C       1       0
       1590    C       1       0
       1591    C       1       0
       1592    C       1       0
       1593    C       1       0
       1594    C       1       0
       1595    C       1       0
       1596    C       1       0
       1597    C       1       0
       1598    C       1       0
       1599    C       1       0
       1600    C       1       0
       1601    C       1       0
       1602    C       1       0
       1604    C       1       0
       1605    C       1       0
       1606    C       1       0
       1607    C       1       0
       1609    C       1       0
       1610    C       1       0
       1611    C       1       0
       1612    C       1       0
       1614    C       1       0
       1617    C       1       0
       1618    C       1       0
       1619    C       1       0
       1620    C       1       0
       1623    C       1       0
       1625    C       1       0
       1626    C       1       0
       1628    C       1       0
       1629    C       1       0
       1630    C       1       0
       1631    C       1       0
       1633    C       1       0
       1634    C       1       0
       1638    C       1       0
       1639    C       1       0
       1640    C       1       0
       1641    C       1       0
       1642    C       1       0
       1643    C       1       0
       1644    C       1       0
       1645    C       1       0
       1647    C       1       0
       1648    C       1       0
       1649    C       1       0
       1650    C       1       0
       1651    C       1       0
       1652    C       1       0
       1653    C       1       0
       1654    C       1       0
       1655    C       1       0
       1656    C       1       0
       1657    C       1       0
       1658    C       1       0
       1661    C       1       0
       1662    C       1       0
       1664    C       1       0
       1665    C       1       0
       1666    C       1       0
       1667    C       1       0
       1668    C       1       0
       1669    C       1       0
       1670    C       1       0
       1672    C       1       0
       1673    C       1       0
       1674    C       1       0
       1675    C       1       0
       1676    C       1       0
       1677    C       1       0
       1678    C       1       0
       1679    C       1       0
       1680    C       1       0
       1681    C       1       0
       1682    C       1       0
       1683    C       1       0
       1684    C       1       0
       1685    C       1       0
       1688    C       1       0
       1690    C       1       0
       1691    C       1       0
       1692    C       1       0
       1693    C       1       0
       1694    C       1       0
       1695    C       1       0
       1696    C       1       0
       1697    C       1       0
       1698    C       1       0
       1699    C       1       0
       1702    C       1       0
       1703    C       1       0
       1704    C       1       0
       1706    C       1       0
       1709    C       1       0
       1710    C       1       0
       1711    C       1       0
       1712    C       1       0
       1713    C       1       0
       1714    C       1       0
       1715    C       1       0
       1716    C       1       0
       1717    C       1       0
       1720    C       1       0
       1722    C       1       0
       1723    C       1       0
       1724    C       1       0
       1725    C       1       0
       1726    C       1       0
       1727    C       1       0
       1728    C       1       0
       1729    C       1       0
       1730    C       1       0
       1731    C       1       0
       1733    C       1       0
       1734    C       1       0
       1735    C       1       0
       1736    C       1       0
       1737    C       1       0
       1738    C       1       0
       1739    C       1       0
       1740    C       1       0
       1742    C       1       0
       1743    C       1       0
       1744    C       1       0
       1745    C       1       0
       1748    C       1       0
       1749    C       1       0
       1750    C       1       0
       1751    C       1       0
       1753    C       1       0
       1754    C       1       0
       1755    C       1       0
       1756    C       1       0
       1757    C       1       0
       1758    C       1       0
       1759    C       1       0
       1760    C       1       0
       1761    C       1       0
       1763    C       1       0
       1764    C       1       0
       1765    C       1       0
       1768    C       1       0
       1769    C       1       0
       1770    C       1       0
       1771    C       1       0
       1772    C       1       0
       1775    C       1       0
       1776    C       1       0
       1777    C       1       0
       1779    C       1       0
       1780    C       1       0
       1781    C       1       0
       1784    C       1       0
       1786    C       1       0
       1787    C       1       0
       1788    C       1       0
       1789    C       1       0
       1791    C       1       0
       1792    C       1       0
       1793    C       1       0
       1794    C       1       0
       1795    C       1       0
       1796    C       1       0
       1797    C       1       0
       1799    C       1       0
       1800    C       1       0
       1801    C       1       0
       1802    C       1       0
       1803    C       1       0
       1804    C       1       0
       1805    C       1       0
       1806    C       1       0
       1807    C       1       0
       1808    C       1       0
       1809    C       1       0
       1811    C       1       0
       1812    C       1       0
       1813    C       1       0
       1815    C       1       0
       1816    C       1       0
       1817    C       1       0
       1818    C       1       0
       1819    C       1       0
       1820    C       1       0
       1821    C       1       0
       1822    C       1       0
       1823    C       1       0
       1824    C       1       0
       1825    C       1       0
       1827    C       1       0
       1829    C       1       0
       1830    C       1       0
       1831    C       1       0
       1833    C       1       0
       1834    C       1       0
       1835    C       1       0
       1836    C       1       0
       1837    C       1       0
       1838    C       1       0
       1839    C       1       0
       1841    C       1       0
       1842    C       1       0
       1843    C       1       0
       1844    C       1       0
       1845    C       1       0
       1846    C       1       0
       1847    C       1       0
       1848    C       1       0
       1849    C       1       0
       1850    C       1       0
       1852    C       1       0
       1853    C       1       0
       1854    C       1       0
       1855    C       1       0
       1856    C       1       0
       1858    C       1       0
       1861    C       1       0
       1862    C       1       0
       1863    C       1       0
       1864    C       1       0
       1865    C       1       0
       1867    C       1       0
       1869    C       1       0
       1870    C       1       0
       1871    C       1       0
       1872    C       1       0
       1874    C       1       0
       1877    C       1       0
       1878    C       1       0
       1880    C       1       0
       1881    C       1       0
       1882    C       1       0
       1883    C       1       0
       1884    C       1       0
       1885    C       1       0
       1887    C       1       0
       1889    C       1       0
       1890    C       1       0
       1892    C       1       0
       1893    C       1       0
       1894    C       1       0
       1895    C       1       0
       1897    C       1       0
       1898    C       1       0
       1899    C       1       0
       1900    C       1       0
       1901    C       1       0
       1902    C       1       0
       1903    C       1       0
       1904    C       1       0
       1905    C       1       0
       1906    C       1       0
       1907    C       1       0
       1908    C       1       0
       1911    C       1       0
       1912    C       1       0
       1913    C       1       0
       1914    C       1       0
       1916    C       1       0
       1917    C       1       0
       1918    C       1       0
       1919    C       1       0
       1920    C       1       0
       1921    C       1       0
       1922    C       1       0
       1923    C       1       0
       1925    C       1       0
       1926    C       1       0
       1927    C       1       0
       1928    C       1       0
       1929    C       1       0
       1930    C       1       0
       1931    C       1       0
       1932    C       1       0
       1933    C       1       0
       1934    C       1       0
       1935    C       1       0
       1936    C       1       0
       1937    C       1       0
       1938    C       1       0
       1939    C       1       0
       1940    C       1       0
       1941    C       1       0
       1942    C       1       0
       1944    C       1       0
       1945    C       1       0
       1947    C       1       0
       1948    C       1       0
       1950    C       1       0
       1951    C       1       0
       1953    C       1       0
       1954    C       1       0
       1955    C       1       0
       1957    C       1       0
       1958    C       1       0
       1959    C       1       0
       1961    C       1       0
       1963    C       1       0
       1964    C       1       0
       1965    C       1       0
       1966    C       1       0
       1967    C       1       0
       1968    C       1       0
       1969    C       1       0
       1971    C       1       0
       1972    C       1       0
       1973    C       1       0
       1974    C       1       0
       1975    C       1       0
       1976    C       1       0
       1977    C       1       0
       1978    C       1       0
       1979    C       1       0
       1980    C       1       0
       1982    C       1       0
       1983    C       1       0
       1984    C       1       0
       1986    C       1       0
       1987    C       1       0
       1988    C       1       0
       1989    C       1       0
       1990    C       1       0
       1991    C       1       0
       1992    C       1       0
       1994    C       1       0
       1995    C       1       0
       1996    C       1       0
       1997    C       1       0
       1998    C       1       0
       1999    C       1       0
       2000    C       1       0
       2002    C       1       0
       2003    C       1       0
       2004    C       1       0
       2005    C       1       0
       2007    C       1       0
       2010    C       1       0
       2011    C       1       0
       2012    C       1       0
       2013    C       1       0
       2014    C       1       0
       2015    C       1       0
       2016    C       1       0
       2017    C       1       0
       2018    C       1       0
       2019    C       1       0
       2021    C       1       0
       2023    C       1       0
       2025    C       1       0
       2026    C       1       0
       2027    C       1       0
       2029    C       1       0
       2031    C       1       0
       2033    C       1       0
       2034    C       1       0
       2035    C       1       0
       2036    C       1       0
       2037    C       1       0
       2038    C       1       0
       2039    C       1       0
       2040    C       1       0
       2041    C       1       0
       2042    C       1       0
       2043    C       1       0
       2044    C       1       0
       2045    C       1       0
       2046    C       1       0
       2047    C       1       0
       2049    C       1       0
       2050    C       1       0
       2052    C       1       0
       2053    C       1       0
       2054    C       1       0
       2055    C       1       0
       2058    C       1       0
       2059    C       1       0
       2062    C       1       0
       2064    C       1       0
       2065    C       1       0
       2066    C       1       0
       2067    C       1       0
       2068    C       1       0
       2069    C       1       0
       2071    C       1       0
       2072    C       1       0
       2073    C       1       0
       2074    C       1       0
       2075    C       1       0
       2078    C       1       0
       2079    C       1       0
       2081    C       1       0
       2082    C       1       0
       2083    C       1       0
       2084    C       1       0
       2085    C       1       0
       2086    C       1       0
       2087    C       1       0
       2088    C       1       0
       2089    C       1       0
       2090    C       1       0
       2091    C       1       0
       2092    C       1       0
       2093    C       1       0
       2094    C       1       0
       2095    C       1       0
       2097    C       1       0
       2098    C       1       0
       2101    C       1       0
       2102    C       1       0
       2103    C       1       0
       2104    C       1       0
       2105    C       1       0
       2106    C       1       0
       2107    C       1       0
       2109    C       1       0
       2111    C       1       0
       2112    C       1       0
       2114    C       1       0
       2115    C       1       0
       2116    C       1       0
       2117    C       1       0
       2118    C       1       0
       2120    C       1       0
       2122    C       1       0
       2123    C       1       0
       2124    C       1       0
       2126    C       1       0
       2127    C       1       0
       2128    C       1       0
       2129    C       1       0
       2131    C       1       0
       2132    C       1       0
       2133    C       1       0
       2134    C       1       0
       2136    C       1       0
       2137    C       1       0
       2138    C       1       0
       2139    C       1       0
       2140    C       1       0
       2141    C       1       0
       2142    C       1       0
       2144    C       1       0
       2146    C       1       0
       2147    C       1       0
       2148    C       1       0
       2149    C       1       0
       2151    C       1       0
       2152    C       1       0
       2153    C       1       0
       2155    C       1       0
       2156    C       1       0
       2157    C       1       0
       2158    C       1       0
       2160    C       1       0
       2162    C       1       0
       2163    C       1       0
       2164    C       1       0
       2167    C       1       0
       2168    C       1       0
       2169    C       1       0
       2170    C       1       0
       2171    C       1       0
       2172    C       1       0
       2173    C       1       0
       2174    C       1       0
       2175    C       1       0
       2176    C       1       0
       2177    C       1       0
       2178    C       1       0
       2179    C       1       0
       2180    C       1       0
       2181    C       1       0
       2182    C       1       0
       2183    C       1       0
       2184    C       1       0
       2185    C       1       0
       2186    C       1       0
       2188    C       1       0
       2189    C       1       0
       2190    C       1       0
       2191    C       1       0
       2192    C       1       0
       2193    C       1       0
       2197    C       1       0
       2198    C       1       0
       2199    C       1       0
       2201    C       1       0
       2204    C       1       0
       2205    C       1       0
       2206    C       1       0
       2207    C       1       0
       2208    C       1       0
       2209    C       1       0
       2211    C       1       0
       2212    C       1       0
       2213    C       1       0
       2214    C       1       0
       2215    C       1       0
       2216    C       1       0
       2217    C       1       0
       2218    C       1       0
       2219    C       1       0
       2220    C       1       0
       2221    C       1       0
       2222    C       1       0
       2223    C       1       0
       2224    C       1       0
       2225    C       1       0
       2227    C       1       0
       2228    C       1       0
       2229    C       1       0
       2230    C       1       0
       2231    C       1       0
       2232    C       1       0
       2233    C       1       0
       2236    C       1       0
       2237    C       1       0
       2238    C       1       0
       2239    C       1       0
       2240    C       1       0
       2243    C       1       0
       2247    C       1       0
       2248    C       1       0
       2249    C       1       0
       2250    C       1       0
       2251    C       1       0
       2252    C       1       0
       2253    C       1       0
       2254    C       1       0
       2256    C       1       0
       2257    C       1       0
       2258    C       1       0
       2259    C       1       0
       2261    C       1       0
       2262    C       1       0
       2263    C       1       0
       2264    C       1       0
       2265    C       1       0
       2267    C       1       0
       2269    C       1       0
       2270    C       1       0
       2271    C       1       0
       2273    C       1       0
       2274    C       1       0
       2275    C       1       0
       2277    C       1       0
       2278    C       1       0
       2279    C       1       0
       2280    C       1       0
       2281    C       1       0
       2282    C       1       0
       2283    C       1       0
       2284    C       1       0
       2285    C       1       0
       2286    C       1       0
       2287    C       1       0
       2288    C       1       0
       2289    C       1       0
       2291    C       1       0
       2292    C       1       0
       2293    C       1       0
       2294    C       1       0
       2295    C       1       0
       2296    C       1       0
       2297    C       1       0
       2299    C       1       0
       2300    C       1       0
       2301    C       1       0
       2302    C       1       0
       2303    C       1       0
       2305    C       1       0
       2306    C       1       0
       2308    C       1       0
       2309    C       1       0
       2310    C       1       0
       2311    C       1       0
       2312    C       1       0
       2313    C       1       0
       2314    C       1       0
       2316    C       1       0
       2317    C       1       0
       2319    C       1       0
       2320    C       1       0
       2321    C       1       0
       2323    C       1       0
       2324    C       1       0
       2325    C       1       0
       2326    C       1       0
       2327    C       1       0
       2328    C       1       0
       2329    C       1       0
       2330    C       1       0
       2331    C       1       0
       2332    C       1       0
       2333    C       1       0
       2334    C       1       0
       2336    C       1       0
       2337    C       1       0
       2338    C       1       0
       2339    C       1       0
       2340    C       1       0
       2342    C       1       0
       2344    C       1       0
       2345    C       1       0
       2346    C       1       0
       2347    C       1       0
       2348    C       1       0
       2349    C       1       0
       2350    C       1       0
       2351    C       1       0
       2353    C       1       0
       2354    C       1       0
       2355    C       1       0
       2356    C       1       0
       2358    C       1       0
       2361    C       1       0
       2362    C       1       0
       2363    C       1       0
       2364    C       1       0
       2365    C       1       0
       2366    C       1       0
       2367    C       1       0
       2368    C       1       0
       2370    C       1       0
       2371    C       1       0
       2373    C       1       0
       2374    C       1       0
       2375    C       1       0
       2376    C       1       0
       2377    C       1       0
       2378    C       1       0
       2380    C       1       0
       2381    C       1       0
       2382    C       1       0
       2383    C       1       0
       2384    C       1       0
       2385    C       1       0
       2386    C       1       0
       2388    C       1       0
       2389    C       1       0
       2390    C       1       0
       2391    C       1       0
       2392    C       1       0
       2393    C       1       0
       2394    C       1       0
       2396    C       1       0
       2398    C       1       0
       2399    C       1       0
       2400    C       1       0
       2401    C       1       0
       2402    C       1       0
       2403    C       1       0
       2404    C       1       0
       2405    C       1       0
       2406    C       1       0
       2408    C       1       0
       2409    C       1       0
       2410    C       1       0
       2411    C       1       0
       2412    C       1       0
       2413    C       1       0
       2414    C       1       0
       2415    C       1       0
       2416    C       1       0
       2417    C       1       0
       2418    C       1       0
       2419    C       1       0
       2420    C       1       0
       2421    C       1       0
       2422    C       1       0
       2424    C       1       0
       2425    C       1       0
       2426    C       1       0
       2428    C       1       0
       2429    C       1       0
       2430    C       1       0
       2431    C       1       0
       2432    C       1       0
       2434    C       1       0
       2435    C       1       0
       2436    C       1       0
       2437    C       1       0
       2438    C       1       0
       2439    C       1       0
       2440    C       1       0
       2442    C       1       0
       2443    C       1       0
       2445    C       1       0
       2446    C       1       0
       2447    C       1       0
       2449    C       1       0
       2451    C       1       0
       2452    C       1       0
       2454    C       1       0
       2455    C       1       0
       2456    C       1       0
       2457    C       1       0
       2458    C       1       0
       2459    C       1       0
       2460    C       1       0
       2461    C       1       0
       2462    C       1       0
       2463    C       1       0
       2464    C       1       0
       2466    C       1       0
       2467    C       1       0
       2468    C       1       0
       2469    C       1       0
       2470    C       1       0
       2471    C       1       0
       2472    C       1       0
       2473    C       1       0
       2474    C       1       0
       2475    C       1       0
       2476    C       1       0
       2477    C       1       0
       2481    C       1       0
       2483    C       1       0
       2484    C       1       0
       2486    C       1       0
       2487    C       1       0
       2488    C       1       0
       2489    C       1       0
       2490    C       1       0
       2491    C       1       0
       2492    C       1       0
       2493    C       1       0
       2494    C       1       0
       2495    C       1       0
       2497    C       1       0
       2498    C       1       0
       2499    C       1       0
       2500    C       1       0
       2502    C       1       0
       2504    C       1       0
       2506    C       1       0
       2508    C       1       0
       2509    C       1       0
       2510    C       1       0
       2511    C       1       0
       2512    C       1       0
       2513    C       1       0
       2515    C       1       0
       2518    C       1       0
       2519    C       1       0
       2522    C       1       0
       2523    C       1       0
       2524    C       1       0
       2526    C       1       0
       2527    C       1       0
       2531    C       1       0
       2532    C       1       0
       2533    C       1       0
       2534    C       1       0
       2537    C       1       0
       2538    C       1       0
       2539    C       1       0
       2540    C       1       0
       2542    C       1       0
       2543    C       1       0
       2544    C       1       0
       2545    C       1       0
       2546    C       1       0
       2547    C       1       0
       2548    C       1       0
       2549    C       1       0
       2550    C       1       0
       2551    C       1       0
       2552    C       1       0
       2553    C       1       0
       2554    C       1       0
       2555    C       1       0
       2556    C       1       0
       2557    C       1       0
       2560    C       1       0
       2562    C       1       0
       2563    C       1       0
       2564    C       1       0
       2567    C       1       0
       2568    C       1       0
       2569    C       1       0
       2570    C       1       0
       2571    C       1       0
       2572    C       1       0
       2573    C       1       0
       2575    C       1       0
       2576    C       1       0
       2577    C       1       0
       2578    C       1       0
       2579    C       1       0
       2580    C       1       0
       2581    C       1       0
       2582    C       1       0
       2584    C       1       0
       2585    C       1       0
       2586    C       1       0
       2587    C       1       0
       2588    C       1       0
       2589    C       1       0
       2590    C       1       0
       2591    C       1       0
       2592    C       1       0
       2593    C       1       0
       2594    C       1       0
       2595    C       1       0
       2597    C       1       0
       2598    C       1       0
       2599    C       1       0
       2600    C       1       0
       2601    C       1       0
       2602    C       1       0
       2603    C       1       0
       2605    C       1       0
       2606    C       1       0
       2607    C       1       0
       2609    C       1       0
       2610    C       1       0
       2612    C       1       0
       2613    C       1       0
       2614    C       1       0
       2615    C       1       0
       2616    C       1       0
       2617    C       1       0
       2619    C       1       0
       2620    C       1       0
       2621    C       1       0
       2624    C       1       0
       2625    C       1       0
       2626    C       1       0
       2627    C       1       0
       2628    C       1       0
       2629    C       1       0
       2630    C       1       0
       2631    C       1       0
       2632    C       1       0
       2633    C       1       0
       2634    C       1       0
       2635    C       1       0
       2636    C       1       0
       2638    C       1       0
       2639    C       1       0
       2641    C       1       0
       2642    C       1       0
       2643    C       1       0
       2644    C       1       0
       2645    C       1       0
       2646    C       1       0
       2648    C       1       0
       2649    C       1       0
       2650    C       1       0
       2651    C       1       0
       2652    C       1       0
       2653    C       1       0
       2654    C       1       0
       2655    C       1       0
       2656    C       1       0
       2657    C       1       0
       2658    C       1       0
       2659    C       1       0
       2661    C       1       0
       2662    C       1       0
       2663    C       1       0
       2664    C       1       0
       2665    C       1       0
       2666    C       1       0
       2667    C       1       0
       2668    C       1       0
       2669    C       1       0
       2670    C       1       0
       2672    C       1       0
       2674    C       1       0
       2675    C       1       0
       2676    C       1       0
       2678    C       1       0
       2679    C       1       0
       2680    C       1       0
       2681    C       1       0
       2682    C       1       0
       2683    C       1       0
       2684    C       1       0
       2685    C       1       0
       2686    C       1       0
       2687    C       1       0
       2688    C       1       0
       2689    C       1       0
       2691    C       1       0
       2693    C       1       0
       2694    C       1       0
       2696    C       1       0
       2697    C       1       0
       2698    C       1       0
       2699    C       1       0
       2700    C       1       0
       2701    C       1       0
       2702    C       1       0
       2703    C       1       0
       2704    C       1       0
       2705    C       1       0
       2706    C       1       0
       2707    C       1       0
       2710    C       1       0
       2711    C       1       0
       2712    C       1       0
       2713    C       1       0
       2714    C       1       0
       2716    C       1       0
       2717    C       1       0
       2719    C       1       0
       2720    C       1       0
       2721    C       1       0
       2722    C       1       0
       2725    C       1       0
       2728    C       1       0
       2729    C       1       0
       2730    C       1       0
       2732    C       1       0
       2734    C       1       0
       2735    C       1       0
       2736    C       1       0
       2737    C       1       0
       2739    C       1       0
       2740    C       1       0
       2741    C       1       0
       2743    C       1       0
       2744    C       1       0
       2745    C       1       0
       2746    C       1       0
       2750    C       1       0
       2751    C       1       0
       2752    C       1       0
       2753    C       1       0
       2755    C       1       0
       2756    C       1       0
       2757    C       1       0
       2759    C       1       0
       2760    C       1       0
       2763    C       1       0
       2764    C       1       0
       2765    C       1       0
       2767    C       1       0
       2773    C       1       0
       2774    C       1       0
       2775    C       1       0
       2776    C       1       0
       2777    C       1       0
       2778    C       1       0
       2779    C       1       0
       2780    C       1       0
       2782    C       1       0
       2783    C       1       0
       2784    C       1       0
       2785    C       2       0
       2786    C       2       0
       2790    C       1       0
       2791    C       2       0
       2792    C       2       0
       2794    C       2       0
       2806    C       1       0
       2807    C       2       0
       2809    C       1       0
       2810    C       1       0
       2811    C       2       0
       2812    C       2       0
       2815    C       2       0
       2816    C       2       0
       2817    C       2       0
       2818    C       2       0
       2819    C       1       0
       2820    C       1       0
       2824    C       1       0
       2825    C       1       0
       2826    C       1       0
       2863    C       2       0
       2872    C       1       0
       2878    C       2       0
       2883    C       1       0
       2884    C       1       0
       2885    C       1       0
       2965    C       2       0
       2966    C       1       0
       2971    C       1       0
       2972    C       1       0
       2977    C       1       0
       2978    C       1       0
       2980    C       1       0
       2983    C       1       0
       2988    C       1       0
       2990    C       1       0
       3001    C       1       0
       3002    C       1       0
       3006    C       2       0
       3015    C       1       0
       3017    C       2       0
       3019    C       1       0
       3022    C       1       0
       3023    C       1       0
       3026    C       1       0
       3027    C       1       0
       3029    C       2       0
       3030    C       1       0
       3031    C       1       0
       3032    C       1       0
       3034    C       1       0
       3036    C       1       0
       3037    C       1       0
       3038    C       1       0
       3039    C       1       0
       3040    C       1       0
       3049    C       1       0
       3050    C       2       0
       3058    C       1       0
       3060    C       1       0
       3061    C       1       0
       3062    C       1       0
       3063    C       2       0
       3064    C       1       0
       3077    C       1       0
       3088    C       1       0
       3090    C       1       0
       3091    C       1       0
       3092    C       1       0
       3100    C       1       0
       3102    C       1       0
       3109    C       1       0
       3114    C       1       0
       3115    C       1       0
       3116    C       1       0
       3117    C       1       0
       3118    C       1       0
       3119    C       1       0
       3133    C       1       0
       3139    C       1       0
       3147    C       1       0
       3148    C       1       0
       3152    C       1       0
       3153    C       1       0
       3158    C       1       0
       3161    C       1       0
       3162    C       1       0
       3167    C       1       0
       3168    C       1       0
       3169    C       1       0
       3176    C       1       0
       3178    C       2       0
       3180    C       1       0
       3181    C       1       0
       3192    C       1       0
       3193    C       1       0
       3194    C       1       0
       3200    C       1       0
       3201    C       1       0
       3202    C       1       0
       3208    C       1       0
       3214    C       2       0
       3215    C       1       0
       3216    C       1       0
       3219    C       1       0
       3222    C       1       0
       3227    C       1       0
       3228    C       1       0
       3231    C       1       0
       3239    C       1       0
       3241    C       1       0
       3248    C       1       0
       3255    D       1       0                                     EFT
       3255    C       1       0
       3269    C       1       0
       3270    C       1       0
       3271    C       1       0
       3272    C       1       0
       3273    C       1       0
       3274    C       1       0
       3275    C       1       0
       3288    C       1       0
       3289    C       1       0
       3290    C       1       0
       3293    C       1       0
       3295    C       1       0
       3296    C       1       0
       3297    C       1       0
       3298    C       1       0
       3302    C       1       0
       3309    C       1       0
       3313    C       1       0
       3316    C       1       0
       3318    C       2       0
       3319    C       1       0
       3320    C       1       0
       3322    C       1       0
       3323    C       1       0
       3324    C       1       0
       3325    C       1       0
       3327    C       1       0
       3328    C       1       0
       3329    C       1       0
       3330    C       1       0
       3331    C       1       0
       3332    C       1       0
       3336    C       1       0
       3337    C       1       0
       3338    C       1       0
       3340    C       1       0
       3341    C       1       0
       3347    C       1       0
       3349    C       1       0
       3350    C       1       0
       3352    C       1       0
       3353    C       1       0
       3362    C       1       0
       3363    C       1       0
       3364    C       1       0
       3368    C       1       0
       3369    C       1       0
       3370    C       1       0
       3371    C       1       0
       3372    C       1       0
       3373    C       1       0
       3378    C       1       0
       3383    C       1       0
       3384    C       1       0
       3390    C       1       0
       3391    C       1       0
       3424    C       2       0
       3425    C       2       0
       3427    C       1       0
       3435    C       1       0
       3436    C       1       0
       3437    C       1       0
       3441    C       1       0
       3442    C       1       0
       3443    C       1       0
       3450    C       1       0
       3451    C       1       0
       3452    C       1       0
       3453    C       1       0
       3455    C       1       0
       3456    C       1       0
       3461    C       2       0
       3462    C       1       0
       3470    C       1       0
       3471    C       1       0
       3472    C       1       0
       3473    C       1       0
       3479    C       1       0
       3483    C       1       0
       3484    C       1       0
       3485    C       2       0
       3486    C       1       0
       3489    C       1       0
       3490    C       1       0
       3492    C       1       0
       3493    C       1       0
       3502    C       1       0
       3505    C       1       0
       3506    C       1       0
       3507    C       1       0
       3508    C       1       0
       3509    C       1       0
       3511    C       1       0
       3512    C       1       0
       3513    C       2       0
       3515    C       1       0
       3519    C       1       0
       3520    C       1       0
       3528    C       1       0
       3532    C       1       0
       3533    C       1       0
       3537    C       1       0
       3538    C       1       0
       3539    C       1       0
       3548    C       1       0
       3550    C       1       0
       3553    C       1       0
       3555    C       1       0
       3556    C       1       0
       3557    C       1       0
       3558    C       1       0
       3563    C       1       0
       3565    C       1       0
       3568    C       1       0
       3570    C       1       0
       3575    C       1       0
       3584    C       1       0
       3587    C       1       0
       3588    C       1       0
       3592    C       1       0
       3593    C       1       0
       3598    C       1       0
       3600    C       1       0
       3601    C       2       0
       3605    C       2       0
       3606    C       2       0
       3607    C       1       0
       3608    C       1       0
       3609    C       1       0
       3611    C       1       0
       3618    C       1       0
       3627    C       1       0
       3631    C       1       0
       3634    C       1       0
       3635    C       1       0
       3639    C       1       0
       3641    C       1       0
       3642    C       1       0
       3644    C       1       0
       3648    C       1       0
       3649    C       1       0
       3651    C       1       0
       3652    C       1       0
       3653    C       1       0
       3654    C       1       0
       3655    C       1       0
       3656    C       1       0
       3657    C       1       0
       3658    C       2       0
       3661    C       1       0
       3662    C       1       0
       3663    C       1       0
       3664    C       1       0
       3665    C       1       0
       3670    C       1       0
       3671    C       1       0
       3676    C       1       0
       3680    C       1       0
       3686    C       1       0
       3691    C       1       0
       3692    C       1       0
       3693    C       1       0
       3696    C       1       0
       3697    C       1       0
       3699    C       1       0
       3701    C       1       0
       3702    C       1       0
       3703    C       1       0
       3704    C       1       0
       3708    C       1       0
       3710    C       1       0
       3712    C       1       0
       3713    C       1       0
       3714    C       1       0
       3715    C       1       0
       3718    C       1       0
       3722    C       1       0
       3726    C       2       0
       3732    C       1       0
       3736    C       1       0
       3737    C       1       0
       3739    C       1       0
       3741    C       1       0
       3743    C       1       0
       3745    C       1       0
       3746    C       1       0
       3748    C       1       0
       3752    C       1       0
       3753    C       1       0
       3755    C       1       0
       3758    C       1       0
       3759    C       1       0
       3767    C       1       0
       3768    C       1       0
       3769    C       1       0
       3770    C       1       0
       3772    C       1       0
       3774    C       1       0
       3776    C       1       0
       3778    C       1       0
       3779    C       1       0
       3780    C       1       0
       3781    C       1       0
       3782    C       1       0
       3786    C       1       0
       3793    C       1       0
       3794    C       1       0
       3795    C       1       0
       3801    C       1       0
       3802    C       1       0
       3803    C       1       0
       3806    C       1       0
       3808    C       2       0
       3811    C       1       0
       3812    C       1       0
       3814    C       1       0
       3815    C       1       0
       3816    C       1       0
       3818    C       2       0
       3825    C       1       0
       3831    C       1       0
       3833    C       1       0
       3834    C       1       0
       3836    C       1       0
       3837    C       1       0
       3838    C       1       0
       3839    C       1       0
       3840    C       1       0
       3841    C       2       0
       3842    C       1       0
       3847    C       1       0
       3849    C       1       0
       3852    C       1       0
       3855    C       1       0
       3856    C       2       0
       3865    C       1       0
       3867    C       1       0
       3868    C       1       0
       3870    C       2       0
       3871    C       1       0
       3873    C       1       0
       3875    C       1       0
       3877    C       1       0
       3879    C       1       0
       3884    C       1       0
       3920    C       1       0
       3922    C       2       0
       3926    C       1       0
       3931    C       1       0
       3932    C       1       0
       3938    C       1       0
       3939    C       2       0
       3941    C       2       0
       3944    C       2       0
       3946    C       2       0
       3949    C       1       0
       3950    C       1       0
       3951    C       1       0
       3954    C       1       0
       3959    C       1       0
       3968    C       1       0
       3970    C       1       0
       3973    C       1       0
       3974    C       1       0
       3981    C       1       0
       3985    C       1       0
       3986    C       1       0
       3988    C       1       0
       3991    C       1       0
       3995    C       1       0
       3996    C       1       0
       3998    C       1       0
       3999    C       1       0
       4000    C       1       0
       4002    C       1       0
       4004    C       1       0
       4005    C       1       0
       4007    C       1       0
       4008    C       1       0
       4009    C       1       0
       4010    C       1       0
       4011    C       1       0
       4012    C       1       0
       4013    C       1       0
       4018    C       1       0
       4020    C       1       0
       4028    C       1       0
       4031    C       2       0
       4043    C       1       0
       4048    C       1       0
       4050    C       2       0
       4053    C       1       0
       4057    C       1       0
       4058    C       1       0
       4059    C       1       0
       4060    C       1       0
       4062    C       1       0
       4069    C       1       0
       4070    C       1       0
       4071    C       1       0
       4073    C       1       0
       4074    C       1       0
       4077    C       2       0
       4080    C       1       0
       4081    C       1       0
       4088    C       1       0
       4089    C       1       0
       4090    C       1       0
       4091    C       1       0
       4099    C       1       0
       4101    C       1       0
       4102    C       1       0
       4106    C       1       0
       4110    C       1       0
       4111    C       1       0
       4112    C       1       0
       4113    C       2       0
       4114    C       1       0
       4118    C       1       0
       4119    C       1       0
       4120    C       1       0
       4122    C       1       0
       4127    C       1       0
       4128    C       1       0
       4130    C       1       0
       4135    C       1       0
       4137    C       1       0
       4138    C       2       0
       4142    C       1       0
       4143    C       1       0
       4145    C       2       0
       4146    C       1       0
       4147    C       1       0
       4148    C       1       0
       4149    C       1       0
       4151    C       1       0
       4152    C       1       0
       4153    C       1       0
       4155    C       1       0
       4156    C       1       0
       4158    C       1       0
       4159    C       1       0
       4162    C       1       0
       4165    C       1       0
       4168    C       1       0
       4169    C       1       0
       4170    C       1       0
       4173    C       1       0
       4174    C       1       0
       4176    C       1       0
       4177    C       1       0
       4178    C       1       0
       4179    C       1       0
       4180    C       1       0
       4182    C       1       0
       4184    C       1       0
       4185    C       1       0
       4186    C       1       0
       4187    C       1       0
       4188    C       1       0
       4189    C       1       0
       4190    C       1       0
       4191    C       1       0
       4192    C       1       0
       4194    C       1       0
       4196    C       1       0
       4197    C       1       0
       4198    C       1       0
       4199    C       1       0
       4200    C       1       0
       4201    C       1       0
       4204    C       1       0
       4205    C       1       0
       4206    C       1       0
       4208    C       1       0
       4209    C       1       0
       4210    C       1       0
       4211    C       1       0
       4212    C       1       0
       4213    C       1       0
       4215    C       1       0
       4217    C       1       0
       4218    C       1       0
       4219    C       1       0
       4223    C       1       0
       4227    C       1       0
       4229    C       1       0
       4233    C       1       0
       4236    C       1       0
       4242    C       1       0
       4243    C       1       0
       4249    C       1       0
       4250    C       1       0
       4253    C       1       0
       4254    C       2       0
       4258    C       1       0
       4261    C       1       0
       4266    C       1       0
       4267    C       1       0
       4268    C       1       0
       4271    C       1       0
       4272    C       1       0
       4274    C       1       0
       4275    C       1       0
       4278    C       1       0
       4279    C       1       0
       4280    C       1       0
       4285    C       1       0
       4287    C       1       0
       4288    C       1       0
       4289    C       1       0
       4290    C       1       0
       4292    C       1       0
       4293    C       1       0
       4294    C       1       0
       4296    C       1       0
       4297    C       1       0
       4299    C       1       0
       4300    C       1       0
       4301    C       1       0
       4302    C       1       0
       4303    C       1       0
       4304    C       1       0
       4305    C       1       0
       4306    C       1       0
       4307    C       1       0
       4308    C       1       0
       4309    C       1       0
       4310    C       1       0
       4312    C       1       0
       4314    C       1       0
       4317    C       1       0
       4318    C       1       0
       4320    C       1       0
       4321    C       1       0
       4324    C       1       0
       4326    C       1       0
       4329    C       1       0
       4331    C       1       0
       4336    C       1       0
       4337    C       1       0
       4340    C       1       0
       4342    C       1       0
       4351    C       1       0
       4352    C       1       0
       4353    C       1       0
       4354    C       1       0
       4362    C       1       0
       4363    C       1       0
       4364    C       1       0
       4366    C       1       0
       4367    C       1       0
       4375    C       1       0
       4377    C       1       0
       4378    C       1       0
       4379    C       1       0
       4387    C       1       0
       4393    C       2       0
       4394    C       1       0
       4403    C       1       0
       4404    C       1       0
       4405    C       1       0
       4407    C       1       0
       4411    C       1       0
       4414    C       1       0
       4418    C       1       0
       4419    C       1       0
       4421    C       1       0
       4422    C       1       0
       4423    C       1       0
       4426    C       1       0
       4427    C       1       0
       4429    C       1       0
       4430    C       1       0
       4435    C       1       0
       4437    C       1       0
       4440    C       1       0
       4444    C       1       0
       4445    C       1       0
       4447    C       1       0
       4450    C       1       0
       4451    C       1       0
       4452    C       1       0
       4453    C       1       0
       4454    C       1       0
       4455    C       1       0
       4462    C       2       0
       4463    C       2       0
       4469    C       1       0
       4470    C       1       0
       4471    C       1       0
       4473    C       1       0
       4477    C       1       0
       4478    C       1       0
       4479    C       1       0
       4482    C       1       0
       4483    C       1       0
       4487    C       1       0
       4488    C       1       0
       4489    C       1       0
       4502    C       1       0
       4504    C       2       0
       4505    C       1       0
       4507    C       1       0
       4509    C       1       0
       4510    C       1       0
       4514    C       1       0
       4518    C       1       0
       4526    D       2       0                                     GL
       4526    C       2       0
       4527    C       2       0
       4532    C       1       0
       4534    C       1       0
       4535    C       1       0
       4543    C       1       0
       4544    C       2       0
       4545    C       1       0
       4546    C       1       0
       4547    C       1       0
       4548    C       1       0
       4549    C       1       0
       4558    C       1       0
       4559    C       1       0
       4560    C       1       0
       4564    C       1       0
       4567    C       1       0
       4568    C       1       0
       4574    C       1       0
       4575    C       1       0
       4579    C       1       0
       4580    C       1       0
       4585    C       1       0
       4587    C       1       0
       4589    C       1       0
       4590    C       1       0
       4591    C       1       0
       4592    C       1       0
       4594    C       1       0
       4595    C       1       0
       4599    C       1       0
       4601    C       1       0
       4602    C       2       0
       4603    C       1       0
       4604    C       1       0
       4606    C       1       0
       4607    C       1       0
       4608    C       1       0
       4611    C       1       0
       4612    C       1       0
       4613    C       1       0
       4616    C       1       0
       4617    C       1       0
       4618    C       1       0
       4619    C       1       0
       4623    C       1       0
       4624    C       1       0
       4625    C       1       0
       4627    C       1       0
       4634    C       1       0
       4635    C       1       0
       4639    C       1       0
       4641    C       1       0
       4642    C       1       0
       4646    C       1       0
       4649    C       1       0
       4651    C       2       0
       4652    C       1       0
       4653    C       1       0
       4654    C       1       0
       4661    C       1       0
       4662    C       2       0
       4663    C       2       0
       4664    C       1       0
       4665    C       1       0
       4667    C       1       0
       4668    C       1       0
       4671    C       2       0
       4672    C       1       0
       4675    C       1       0
       4678    C       1       0
       4679    C       1       0
       4680    C       1       0
       4681    C       1       0
       4682    C       1       0
       4683    C       1       0
       4684    C       1       0
       4685    C       1       0
       4686    C       1       0
       4687    C       2       0
       4688    C       1       0
       4689    C       1       0
       4690    C       1       0
       4691    C       1       0
       4692    C       1       0
       4693    C       1       0
       4694    C       1       0
       4695    C       1       0
       4696    C       1       0
       4697    C       1       0
       4698    C       1       0
       4699    C       1       0
       4700    C       1       0
       4701    C       1       0
       4704    C       1       0
       4706    C       1       0
       4707    C       1       0
       4708    C       1       0
       4709    C       1       0
       4710    C       1       0
       4711    C       1       0
       4712    C       1       0
       4713    C       1       0
       4714    C       1       0
       4715    C       1       0
       4716    C       1       0
       4720    C       1       0
       4721    C       1       0
       4725    C       1       0
       4726    C       1       0
       4727    C       1       0
       4729    C       1       0
       4732    C       1       0
       4738    C       1       0
       4741    C       1       0
       4742    C       1       0
       4743    C       1       0
       4744    C       1       0
       4747    C       1       0
       4748    C       1       0
       4753    C       1       0
       4754    C       1       0
       4756    C       1       0
       4758    C       1       0
       4760    C       1       0
       4761    C       1       0
       4762    C       1       0
       4763    C       1       0
       4764    C       1       0
       4765    C       1       0
       4766    C       1       0
       4767    C       1       0
       4768    C       1       0
       4769    C       1       0
       4770    C       1       0
       4771    C       1       0
       4772    C       1       0
       4773    C       1       0
       4774    C       1       0
       4775    C       1       0
       4780    C       1       0
       4781    C       1       0
       4782    C       1       0
       4783    C       1       0
       4784    C       1       0
       4785    C       1       0
       4786    C       1       0
       4787    C       1       0
       4788    C       1       0
       4791    C       1       0
       4792    C       1       0
       4794    C       1       0
       4796    C       2       0
       4798    C       1       0
       4799    C       1       0
       4800    C       1       0
       4801    C       1       0
       4802    C       1       0
       4803    C       1       0
       4804    C       1       0
       4809    C       1       0
       4810    C       1       0
       4812    C       1       0
       4818    C       1       0
       4819    C       1       0
       4820    C       2       0
       4821    C       1       0
       4822    C       1       0
       4823    C       1       0
       4824    C       1       0
       4825    C       1       0
       4830    C       1       0
       4831    C       1       0
       4832    C       1       0
       4836    C       1       0
       4837    C       1       0
       4841    C       1       0
       4843    C       1       0
       4844    C       1       0
       4846    C       1       0
       4847    C       1       0
       4848    C       2       0
       4849    C       2       0
       4850    C       1       0
       4852    C       1       0
       4861    C       1       0
       4866    C       1       0
       4867    C       1       0
       4868    C       1       0
       4869    C       1       0
       4870    C       2       0
       4871    C       2       0
       4872    C       1       0
       4876    C       1       0
       4881    C       1       0
       4882    C       1       0
       4883    C       1       0
       4884    C       2       0
       4885    C       1       0
       4886    C       1       0
       4887    C       1       0
       4888    C       1       0
       4889    C       1       0
       4891    C       1       0
       4892    C       1       0
       4895    C       1       0
       4896    C       1       0
       4905    C       1       0
       4909    C       1       0
       4911    C       1       0
       4912    C       1       0
       4916    C       1       0
       4917    C       1       0
       4918    C       1       0
       4919    C       1       0
       4920    C       2       0
       4922    C       1       0
       4923    C       1       0
       4924    C       2       0
       4925    C       1       0
       4926    C       1       0
       4927    C       1       0
       4928    C       1       0
       4929    C       1       0
       4931    C       1       0
       4932    C       1       0
       4933    C       1       0
       4964    C       1       0
       4965    C       1       0
       4967    C       1       0
       4968    C       1       0
       4971    C       2       0
       4972    C       1       0
       4982    C       1       0
       4983    C       2       0
       4984    C       2       0
       4985    C       2       0
       4986    C       1       0
       4992    C       1       0
       4994    C       2       0
       5007    C       1       0
       5008    C       1       0
       5009    C       1       0
       5010    C       1       0
       5011    C       1       0
       5013    C       1       0
       5051    D       0       2                                     DDA
       5056    C       2       0
       5088    D       0       2                                     SVG
       5123    D       0       2                                     DDA
       5201    C       2       0
       5335    C       3       0
       5341    C       2       0
       5349    C       2       0
       5350    C       2       0
       5400    C       2       0
       5401    C       2       0
       5405    C       2       0
       5415    C       2       0
Debit Credit Totals are off:  TFR:005442                25.00                 0.00
       5492    C       3       0
       5513    C       2       0
       5542    C       2       0
       5546    C       3       0
       5622    C       2       0
       5623    C       2       0
       5625    C       3       0
       5648    C       2       0
       5662    C       3       0
       5700    C       3       0
       5742    C       2       0
       5753    C       2       0
       5772    C       2       0
       5775    C       2       0
       5804    C       2       0
       5842    C       2       0
       5889    C       2       0
       5898    C       2       0
       5907    C       2       0
       5908    C       2       0
       5916    C       2       0
       5932    C       2       0
       5933    C       2       0
       5939    C       2       0
       5944    C       2       0
       5945    C       2       0
